<svg width="24" height="24" viewBox="0 0 24 24" fill="none" xmlns="http://www.w3.org/2000/svg">
<g id="Icons / Fonts / arrow-right">
<path id="icon" fill-rule="evenodd" clip-rule="evenodd" d="M17.5858 13H3V11H17.5858L11.2929 4.70711L12.7071 3.29289L21.4142 12L12.7071 20.7071L11.2929 19.2929L17.5858 13Z" fill="black"/>
</g>
</svg>
