<svg width="36" height="36" viewBox="0 0 36 36" fill="none" xmlns="http://www.w3.org/2000/svg">
<g id="Icons / Fonts / chevron-bottom">
<path id="icon" fill-rule="evenodd" clip-rule="evenodd" d="M29.9092 9.65902L33.0912 12.841L18.0002 27.932L2.90918 12.841L6.09116 9.65902L18.0002 21.568L29.9092 9.65902Z" fill="black"/>
</g>
</svg>
