<svg width="24" height="24" viewBox="0 0 24 24" fill="none" xmlns="http://www.w3.org/2000/svg">
<g id="Icons / Fonts / grid">
<path id="icon" fill-rule="evenodd" clip-rule="evenodd" d="M20 2H4C2.89543 2 2 2.89543 2 4V20C2 21.1046 2.89543 22 4 22H20C21.1046 22 22 21.1046 22 20V4C22 2.89543 21.1046 2 20 2ZM4 20V13H11V20H4ZM13 20H20V13H13V20ZM13 11H20V4H13V11ZM11 4H4V11H11V4Z" fill="black"/>
</g>
</svg>
