<svg width="40" height="40" viewBox="0 0 40 40" fill="none" xmlns="http://www.w3.org/2000/svg">
<g clip-path="url(#clip0)">
<g clip-path="url(#clip1)">
<path d="M29.7174 16.0476C31.6706 11.8637 29.9849 6.50584 25.8849 4.59187C21.6434 2.61187 16.4646 4.66777 14.4708 8.87637C13.3075 11.3321 15.0853 18.243 14.651 19.1735L13.707 21.1957L20.7846 24.4997L21.7286 22.4775C22.1618 21.5495 28.5742 18.4966 29.7174 16.0476Z" fill="#FFC144"/>
<path d="M20.155 20.573L17.1218 19.157L14.6276 19.2241L13.7072 21.1957L20.7848 24.4997L21.7288 22.4775L20.155 20.573Z" fill="white"/>
<path d="M18.6606 29.0496L11.583 25.7456L11.6501 28.2398L16.7055 30.5997L18.6606 29.0496Z" fill="#FFF7BF"/>
<path d="M12.527 23.7234L11.583 25.7456L19.8406 26.5218L20.7846 24.4997L12.527 23.7234Z" fill="white"/>
<path d="M11.5827 25.7456L18.6603 29.0496L19.8403 26.5219L11.5827 25.7456Z" fill="#B6BCCF"/>
<path d="M13.707 21.1957L12.527 23.7234L20.7846 24.4997L13.707 21.1957Z" fill="#B6BCCF"/>
<path d="M17.8132 12.3993C18.3716 12.66 19.0356 12.4186 19.2963 11.8602C19.5569 11.3018 19.3156 10.6378 18.7572 10.3771C18.1988 10.1165 17.5348 10.3578 17.2741 10.9162C17.0134 11.4746 17.2548 12.1386 17.8132 12.3993Z" fill="white"/>
<path d="M24.8903 15.7033C25.4487 15.9639 26.1127 15.7226 26.3734 15.1642C26.6341 14.6058 26.3927 13.9418 25.8343 13.6811C25.2759 13.4204 24.6119 13.6618 24.3512 14.2202C24.0906 14.7786 24.3319 15.4426 24.8903 15.7033Z" fill="white"/>
<path d="M26.3998 19.5362C26.679 19.6665 27.011 19.5459 27.1413 19.2667C27.2716 18.9875 27.151 18.6555 26.8718 18.5251C26.5925 18.3948 26.2606 18.5155 26.1302 18.7947C25.9999 19.0739 26.1206 19.4059 26.3998 19.5362Z" fill="black"/>
<path d="M28.9579 6.29568C28.2026 5.35684 27.2117 4.59552 26.121 4.08636C22.7694 2.52176 18.7436 3.36045 16.0531 5.82162C15.1847 6.61606 14.4685 7.5799 13.9637 8.64358C13.6614 9.30166 13.519 10.1594 13.5111 11.4043C13.5066 13.5244 13.889 15.6121 14.1022 17.7149C14.1396 18.0839 14.2352 18.5669 14.1408 18.9477L11.0775 25.5096C11.0407 25.5886 11.0257 25.6741 11.0254 25.7606L11.0925 28.2548C11.0982 28.466 11.2227 28.6559 11.4142 28.7453L16.4696 31.1053C16.6611 31.1947 16.8866 31.1682 17.0522 31.0369C17.0522 31.0369 19.0056 29.488 19.0073 29.4867C19.0274 29.4708 19.0954 29.4372 19.1662 29.2856C19.1662 29.2856 22.2224 22.7389 22.2295 22.7236C22.2768 22.6224 22.4044 22.5476 22.4894 22.478C22.9048 22.1381 24.7634 20.9475 24.8455 20.8946C25.0971 20.7324 25.1788 20.3807 25.0132 20.1238C24.8491 19.8695 24.4961 19.7925 24.2426 19.9556C24.1263 20.0306 22.7825 20.8914 22.3481 21.1942C22.1018 21.3658 21.9115 21.508 21.7568 21.6357L20.879 20.5735L24.5435 16.151C24.5798 16.1714 24.6167 16.1909 24.655 16.2088C25.4913 16.5992 26.4892 16.2364 26.8796 15.4002C27.27 14.5639 26.9073 13.5659 26.071 13.1755C25.4453 12.8835 24.7293 13.013 24.2447 13.447L23.8316 12.3105C23.7263 12.0209 23.4063 11.8715 23.1166 11.9767L22.158 12.3253L21.8095 11.3665C21.7042 11.0769 21.3841 10.9275 21.0945 11.0327L19.958 11.4458C19.9795 10.7957 19.6191 10.1637 18.9934 9.87158C18.1571 9.48119 17.1592 9.84394 16.7688 10.6802C16.3784 11.5165 16.7412 12.5144 17.5774 12.9048C17.6157 12.9227 17.6545 12.9385 17.6934 12.9532L16.6545 18.6115L15.2791 18.6485C15.2792 18.5004 15.2723 18.3294 15.2578 18.1165C15.0945 15.7074 14.5399 13.3241 14.6384 10.8993C14.6694 10.1417 14.7894 9.50627 14.9724 9.12068C15.868 7.22861 17.5326 5.69923 19.534 4.93479C21.5794 4.15394 23.7512 4.21158 25.649 5.09751L25.651 5.09846C27.477 5.95088 28.8583 7.56481 29.5409 9.64256C30.2111 11.6824 30.0911 13.931 29.212 15.8117C29.0509 16.1619 28.6975 16.6052 28.216 17.0589C27.993 17.2691 27.9859 17.6272 28.1954 17.848C28.3983 18.0619 28.7574 18.0837 28.9842 17.869C29.5936 17.2877 29.9869 16.7842 30.223 16.2837C31.7422 13.0633 31.177 9.05371 28.9579 6.29568ZM16.6291 29.9483L12.1986 27.8801L12.165 26.633L17.6067 29.1733L16.6291 29.9483ZM18.3911 28.308L14.7377 26.6025L19.0002 27.0032L18.3911 28.308ZM25.599 14.1866C25.8778 14.3168 25.9987 14.6494 25.8685 14.9282C25.7384 15.2069 25.4058 15.3278 25.127 15.1977C24.8483 15.0676 24.7273 14.7349 24.8575 14.4562C24.9876 14.1774 25.3202 14.0565 25.599 14.1866ZM18.0494 11.8937C17.7707 11.7636 17.6497 11.431 17.7799 11.1522C17.91 10.8735 18.2427 10.7525 18.5214 10.8827C18.8002 11.0128 18.9211 11.3454 18.791 11.6242C18.6608 11.903 18.3282 12.0239 18.0494 11.8937ZM18.8245 12.9715C19.069 12.8881 19.2942 12.7489 19.4791 12.5612L19.566 12.6017C19.7001 12.6643 19.8535 12.6711 19.9926 12.6205L20.9514 12.272L21.2999 13.2308C21.4052 13.5204 21.7252 13.6698 22.0149 13.5646L22.9735 13.216L23.322 14.1748C23.3726 14.3138 23.4763 14.4271 23.6104 14.4897L23.6973 14.5303C23.6721 14.7926 23.71 15.0546 23.8032 15.2956L20.0003 19.8851L17.7481 18.8338L18.8245 12.9715ZM14.9871 19.7725L17.0049 19.7183L19.8049 21.0254L21.0739 22.5611L20.5151 23.7582L14.4486 20.9262L14.9871 19.7725ZM13.9766 21.9373L17.6301 23.6428L13.3675 23.2421L13.9766 21.9373ZM12.8663 24.3157L19.9442 24.9811L19.5014 25.9296L12.4235 25.2642L12.8663 24.3157Z" fill="black"/>
<path d="M12.998 4.10565L14.181 5.28967C14.2283 5.33709 14.2821 5.37418 14.3395 5.40099C14.546 5.4974 14.7994 5.4604 14.9699 5.28996C15.1879 5.07219 15.1881 4.71895 14.9702 4.50095L13.7873 3.31693C13.5695 3.09885 13.2162 3.09882 12.9983 3.31664C12.7803 3.53439 12.7802 3.88762 12.998 4.10565Z" fill="black"/>
<path d="M31.2163 20.7614L30.0334 19.5773C29.8157 19.3593 29.4623 19.3592 29.2444 19.5771C29.0264 19.7948 29.0263 20.1481 29.2441 20.3661L30.4271 21.5501C30.4744 21.5975 30.5282 21.6346 30.5856 21.6614C30.7921 21.7578 31.0455 21.7208 31.216 21.5504C31.434 21.3326 31.4341 20.9794 31.2163 20.7614Z" fill="black"/>
<path d="M12.9568 8.162C13.0871 7.88279 12.9664 7.55078 12.6872 7.42046L11.1706 6.71247C10.8914 6.58215 10.5594 6.7028 10.429 6.98201C10.2987 7.26122 10.4194 7.59323 10.6986 7.72355L12.2152 8.43155C12.4944 8.56186 12.8264 8.44121 12.9568 8.162Z" fill="black"/>
<path d="M33.5153 17.1436L31.9987 16.4356C31.7195 16.3053 31.3875 16.4259 31.2572 16.7051C31.1268 16.9843 31.2475 17.3163 31.5267 17.4467L33.0433 18.1547C33.3225 18.285 33.6545 18.1643 33.7849 17.8851C33.9152 17.6059 33.7945 17.2739 33.5153 17.1436Z" fill="black"/>
<path d="M12.0474 11.5491C12.0743 11.2422 11.8473 10.9715 11.5405 10.9445L9.87323 10.798C9.56627 10.771 9.29557 10.9979 9.26858 11.3049C9.24746 11.5451 9.38182 11.7631 9.58828 11.8594C9.64571 11.8862 9.70866 11.9036 9.77543 11.9095L11.4427 12.056C11.7497 12.083 12.0204 11.8561 12.0474 11.5491Z" fill="black"/>
<path d="M32.167 13.318C32.1459 13.5582 32.2803 13.7762 32.4867 13.8726C32.5442 13.8994 32.6071 13.9168 32.6739 13.9226L34.3412 14.0692C34.6481 14.0962 34.9188 13.8692 34.9458 13.5623C34.9728 13.2553 34.7458 12.9846 34.439 12.9577L32.7717 12.8111C32.4647 12.7841 32.194 13.011 32.167 13.318Z" fill="black"/>
<path d="M11.669 14.6482L10.0521 15.0808C9.7545 15.1604 9.5777 15.4662 9.65734 15.7638C9.73277 16.0458 10.0429 16.2383 10.3405 16.1587L11.9574 15.7262C12.255 15.6465 12.4318 15.3407 12.3521 15.043C12.2726 14.7453 11.9666 14.5686 11.669 14.6482Z" fill="black"/>
<path d="M32.1691 10.1787C32.2846 10.2341 32.4179 10.2531 32.5456 10.2189L34.1625 9.78637C34.4601 9.70673 34.6369 9.40088 34.5572 9.10323C34.4777 8.80558 34.1718 8.62886 33.8741 8.70842L32.2572 9.14096C31.9596 9.2206 31.7828 9.52634 31.8624 9.82394C31.9038 9.97833 32.022 10.108 32.1691 10.1787Z" fill="black"/>
<path d="M16.3956 1.49223C16.3956 1.49223 17.1013 3.00734 17.1023 3.00946C17.2263 3.27564 17.5617 3.41101 17.8436 3.2796C18.123 3.14956 18.2439 2.81761 18.1138 2.53832L17.4071 1.02108C17.2771 0.741864 16.9451 0.620754 16.6658 0.750944C16.3865 0.881036 16.2656 1.21293 16.3956 1.49223Z" fill="black"/>
<path d="M27.8189 23.3748L27.1122 21.8576C26.9821 21.5783 26.6502 21.4572 26.3709 21.5874C26.0916 21.7175 25.9707 22.0494 26.1007 22.3287L26.8075 23.846C26.9363 24.1226 27.2722 24.245 27.5488 24.1161C27.8281 23.986 27.949 23.6541 27.8189 23.3748Z" fill="black"/>
</g>
<path fill-rule="evenodd" clip-rule="evenodd" d="M6.07125 20.0025C5.89365 20.0022 5.72244 20.0223 5.55976 20.0605C5.33674 19.5689 5.04216 19.1279 4.70711 18.7929C4.13843 18.2242 3.24155 18 2 18V20C2.75845 20 3.1949 20.1091 3.29289 20.2071C3.67086 20.5851 4 21.3531 4 22L4.01005 22.1414L4.98992 29.0005C3.35036 29.0856 2.0802 30.3588 2.00123 31.9504L2 33C2.09682 34.6439 3.36275 35.9085 4.94324 35.9984L5.17026 35.9987C5.58174 37.1646 6.69331 38 8 38C9.30622 38 10.4175 37.1652 10.8293 36H13.1707C13.5825 37.1652 14.6938 38 16 38C17.6569 38 19 36.6569 19 35C19 33.3431 17.6569 32 16 32C14.6938 32 13.5825 32.8348 13.1707 34H10.8293C10.4175 32.8348 9.30622 32 8 32C6.69378 32 5.58254 32.8348 5.17071 34H5C4.49001 33.9694 4.03254 33.5124 3.99821 32.9401L4 32C4.02697 31.4813 4.48131 31.027 5.04955 30.9988L7.02369 30.9993L7.038 31H17.1169L17.2645 30.9532C18.0227 30.7126 18.6296 30.1416 18.917 29.4025L19.0224 29.194L19.3647 28.5159C19.7188 27.8139 20.0729 27.1108 20.418 26.4238C21.2632 24.7411 21.7948 23.6717 21.9125 23.4091C22.5171 22.0605 21.2924 21.0225 20.0407 21.0004L6.07125 20.0025ZM16.7694 29H7.11287C7.04866 28.9822 6.99973 28.9278 6.99015 28.86L6.01026 22.0007L19.8934 22.9949C19.6505 23.4903 19.2089 24.3752 18.6308 25.5261L18.6163 25.5549C18.2863 26.2119 17.9326 26.9141 17.579 27.6151L17.2371 28.2923L17.1076 28.5488L17.0588 28.6622C17.0065 28.8078 16.9028 28.9274 16.7694 29ZM16 36C16.5523 36 17 35.5523 17 35C17 34.4477 16.5523 34 16 34C15.4477 34 15 34.4477 15 35C15 35.5523 15.4477 36 16 36ZM9 35C9 35.5523 8.55228 36 8 36C7.44772 36 7 35.5523 7 35C7 34.4477 7.44772 34 8 34C8.55228 34 9 34.4477 9 35Z" fill="black"/>
</g>
<defs>
<clipPath id="clip0">
<rect width="40" height="40" fill="white"/>
</clipPath>
<clipPath id="clip1">
<rect width="28.5652" height="28.5652" fill="white" transform="translate(13.083 -2) rotate(25.0242)"/>
</clipPath>
</defs>
</svg>
