<svg width="118" height="18" viewBox="0 0 118 18" fill="none" xmlns="http://www.w3.org/2000/svg">
<g clip-path="url(#clip0)">
<path d="M11.0601 1.3861L16.8634 6.82092L14.9371 14.437L7.20956 16.6182L1.40841 11.1855L3.33478 3.56948L11.0601 1.3861ZM11.4083 0L10.7118 0.186963L2.97992 2.38109L2.28123 2.5788L2.09608 3.27077L0.176327 10.889L0 11.5766L0.52898 12.0709L6.33233 17.5057L6.86131 18L7.5578 17.8087L15.2875 15.6211L15.9862 15.4234L16.1625 14.7292L18.0889 7.11318L18.2696 6.41905L17.7407 5.92478L11.9395 0.49212L11.4083 0Z" fill="#666666"/>
<path d="M31.7499 13.7258C31.3861 13.9648 30.9744 14.1259 30.5421 14.1986C30.0464 14.295 29.5421 14.3432 29.0367 14.3425C28.437 14.3451 27.841 14.2499 27.2734 14.061C26.7114 13.8738 26.2025 13.5601 25.7879 13.1456C25.3326 12.6788 24.986 12.1217 24.7718 11.5123C24.5015 10.7283 24.3739 9.90433 24.3949 9.0775C24.3698 8.22773 24.5135 7.38124 24.8181 6.58467C25.0606 5.97367 25.4367 5.42148 25.9201 4.96647C26.3498 4.56901 26.8637 4.26825 27.4255 4.08538C27.9633 3.9094 28.5267 3.81941 29.094 3.81891C29.5984 3.81195 30.1024 3.8508 30.5994 3.93495C30.9463 3.99495 31.2865 4.08706 31.6155 4.21003L31.2143 5.88624C30.9555 5.77011 30.6808 5.69121 30.3988 5.652C30.0237 5.59915 29.6449 5.57472 29.2659 5.57894C28.89 5.56568 28.5159 5.63622 28.1722 5.78518C27.8284 5.93414 27.5241 6.15759 27.2822 6.43853C26.7827 7.0116 26.5329 7.89484 26.5329 9.08825C26.5278 9.56947 26.5879 10.0492 26.7114 10.5152C26.8135 10.9092 26.9948 11.2795 27.2448 11.6047C27.4846 11.9071 27.7942 12.1501 28.1484 12.3139C28.543 12.4895 28.9734 12.5755 29.407 12.5653C29.7867 12.5736 30.1658 12.5302 30.5333 12.4364C30.8138 12.36 31.0828 12.248 31.3334 12.1033L31.7499 13.7258Z" fill="#666666"/>
<path d="M35.0449 10.3796L31.6462 4.02075H34.0707L35.9685 7.82018L36.1756 8.89468H36.2484L36.4688 7.79654L38.307 4.02505H40.4846L37.0903 10.3689V14.1361H35.0604L35.0449 10.3796Z" fill="#666666"/>
<path d="M48.6859 6.37601C48.6848 6.6282 48.6523 6.87934 48.5889 7.12386C48.5264 7.36955 48.4181 7.60193 48.2693 7.80939C48.1172 8.02592 47.926 8.21377 47.7051 8.36383C47.4451 8.53284 47.1551 8.65309 46.8499 8.71841V8.81082C47.1375 8.8607 47.4174 8.94591 47.683 9.0644C47.94 9.17549 48.1722 9.33465 48.3663 9.53288C48.5702 9.74591 48.7283 9.99652 48.8314 10.27C48.9513 10.5988 49.0088 10.9462 49.0011 11.2951C49.016 11.7707 48.8987 12.2415 48.6617 12.6575C48.4405 13.0326 48.1317 13.3514 47.7602 13.588C47.3614 13.8364 46.9225 14.0173 46.462 14.1231C45.9721 14.2397 45.4696 14.2981 44.9654 14.2972H44.3196C44.0581 14.2972 43.7767 14.29 43.4755 14.2757C43.1742 14.2614 42.8679 14.2399 42.5563 14.2112C42.2694 14.1865 41.9845 14.1434 41.7034 14.0823V4.09377C41.8907 4.06369 42.1067 4.03575 42.3492 4.00781C42.5916 3.97988 42.8495 3.95409 43.1272 3.93475C43.4049 3.91541 43.687 3.90036 43.9802 3.89177C44.2733 3.88317 44.5599 3.87672 44.8464 3.87672C45.3202 3.87587 45.7934 3.9118 46.2614 3.98417C46.6884 4.04778 47.1021 4.17765 47.4869 4.36884C47.8453 4.54284 48.1497 4.80694 48.3685 5.13389C48.5956 5.50918 48.7058 5.94073 48.6859 6.37601ZM44.3439 8.26927C44.4827 8.26927 44.6436 8.26927 44.8266 8.25423C44.9742 8.24736 45.1213 8.23301 45.2674 8.21125C45.6234 8.11063 45.9543 7.93944 46.2394 7.70838C46.3724 7.59788 46.4782 7.45952 46.5488 7.30362C46.6194 7.14771 46.653 6.97828 46.6471 6.80796C46.6557 6.59384 46.6047 6.38145 46.4995 6.19334C46.4042 6.03425 46.2692 5.90119 46.1071 5.80652C45.9356 5.70836 45.7475 5.64069 45.5517 5.60667C45.3337 5.56709 45.1123 5.54767 44.8905 5.54864C44.6333 5.54864 44.396 5.55366 44.1786 5.56369C44.0096 5.56881 43.8411 5.58316 43.6738 5.60667V8.26927H44.3439ZM44.9875 12.6188C45.2253 12.6191 45.4623 12.5902 45.6928 12.5329C45.9087 12.4808 46.1133 12.3913 46.2967 12.2686C46.4725 12.152 46.6193 11.9985 46.7265 11.8194C46.8376 11.6221 46.8931 11.3997 46.8874 11.1747C46.9015 10.914 46.8355 10.6551 46.6978 10.4312C46.5737 10.2482 46.4028 10.1001 46.2019 10.0014C45.9877 9.89797 45.7563 9.83248 45.5186 9.80795C45.2677 9.77952 45.0153 9.76517 44.7626 9.76497H43.7003V12.5329C43.7759 12.5571 43.8544 12.5716 43.9339 12.5759C44.0397 12.5859 44.1536 12.5931 44.2755 12.5974L44.6546 12.6124L44.9875 12.6188Z" fill="#666666"/>
<path d="M50.8394 4.02075H56.9888V5.77433H52.8737V8.13823H56.6207V9.90041H52.8737V12.3718H57.0615V14.1339H50.8394V4.02075Z" fill="#666666"/>
<path d="M58.9504 4.11536C59.1782 4.07668 59.4229 4.04086 59.6844 4.00791C59.946 3.97496 60.2082 3.94846 60.4713 3.9284C60.7328 3.90977 60.987 3.89545 61.2339 3.88542C61.4807 3.87539 61.7077 3.87038 61.9149 3.87038C62.3948 3.86948 62.8738 3.91265 63.3454 3.99931C63.7891 4.07693 64.2156 4.22889 64.6061 4.44846C64.973 4.66034 65.2768 4.9618 65.4877 5.3231C65.7241 5.75079 65.839 6.23229 65.8206 6.7178C65.8537 7.43679 65.6456 8.14672 65.2277 8.74C64.8326 9.25597 64.2765 9.63302 63.6429 9.8145L64.3593 10.2615L66.7309 14.1297H64.3989L62.0362 10.1777L60.9694 9.99072V14.1383H58.9504V4.11536ZM62.0626 5.63255C61.8554 5.63255 61.6504 5.63255 61.4477 5.6476C61.2903 5.65135 61.1337 5.67079 60.9804 5.70562V8.64544H61.84C62.32 8.66959 62.7946 8.53728 63.1889 8.26937C63.5283 8.01865 63.698 7.60461 63.698 7.02725C63.7069 6.83943 63.674 6.65196 63.6018 6.47765C63.5295 6.30334 63.4195 6.14629 63.2793 6.01722C62.9348 5.74788 62.4985 5.61581 62.0582 5.6476L62.0626 5.63255Z" fill="#666666"/>
<path d="M75.1945 8.78292L74.379 7.19266H74.304L74.5421 8.78292V14.0587H72.6157V3.86816H74.0969L78.0245 9.25785L78.8092 10.803H78.8819L78.6439 9.25785V3.94123H80.5702V14.1296H79.0869L75.1945 8.78292Z" fill="#666666"/>
<path d="M82.7236 3.94141H88.8753V5.70358H84.7536V8.06748H88.5006V9.82966H84.7536V12.301H88.9414V14.0589H82.7236V3.94141Z" fill="#666666"/>
<path d="M94.24 9.88543L94.5067 11.6046H94.5817L94.8792 9.8618L96.8629 3.93701H98.9965L95.1437 14.1297H93.6912L89.8076 3.94131H92.1638L94.24 9.88543Z" fill="#666666"/>
<path d="M99.2498 8.9978C99.2498 7.31156 99.6304 6.01356 100.392 5.10382C101.153 4.19408 102.239 3.74064 103.651 3.74351C104.319 3.7292 104.982 3.85757 105.593 4.11958C106.135 4.36299 106.608 4.73185 106.971 5.19408C107.353 5.69032 107.63 6.25573 107.786 6.8574C107.971 7.5593 108.061 8.28179 108.053 9.0064C108.053 10.6926 107.67 11.9906 106.905 12.9004C106.139 13.8101 105.055 14.265 103.651 14.265C102.979 14.2804 102.311 14.152 101.694 13.8889C101.153 13.6472 100.682 13.2779 100.323 12.8144C99.9442 12.3156 99.6694 11.749 99.5143 11.1468C99.3302 10.4448 99.2413 9.72233 99.2498 8.9978ZM101.383 8.9978C101.379 9.47084 101.423 9.94311 101.516 10.4075C101.59 10.7948 101.727 11.1678 101.923 11.5121C102.092 11.8062 102.334 12.0544 102.626 12.2342C102.935 12.4131 103.29 12.5032 103.649 12.4942C103.977 12.5076 104.303 12.439 104.596 12.2949C104.89 12.1509 105.14 11.9361 105.324 11.6712C105.72 11.1224 105.917 10.2313 105.917 8.9978C105.92 8.53721 105.878 8.07739 105.792 7.6246C105.72 7.23604 105.588 6.86055 105.399 6.51142C105.233 6.21088 104.99 5.95707 104.694 5.77431C104.246 5.52569 103.72 5.44719 103.217 5.55391C102.714 5.66062 102.269 5.94502 101.967 6.35239C101.581 6.9097 101.388 7.79365 101.388 9.00425L101.383 8.9978Z" fill="#666666"/>
<path d="M109.876 3.94165C110.083 3.91299 110.317 3.88864 110.579 3.86858C110.84 3.84852 111.11 3.8342 111.388 3.8256C111.664 3.81557 111.934 3.80841 112.197 3.80411H112.9C113.7 3.78388 114.497 3.90924 115.249 4.17374C115.858 4.39504 116.403 4.75713 116.836 5.2289C117.248 5.69904 117.549 6.25138 117.718 6.84709C117.912 7.51962 118.007 8.21574 118 8.91443C118.002 9.58282 117.912 10.2485 117.733 10.8937C117.567 11.5124 117.266 12.0891 116.852 12.5849C116.407 13.0978 115.847 13.5031 115.214 13.769C114.418 14.0902 113.562 14.2433 112.701 14.2182C112.543 14.2182 112.333 14.2182 112.071 14.2031L111.256 14.1666L110.449 14.1236C110.192 14.1093 109.999 14.0928 109.871 14.0742L109.876 3.94165ZM113.069 5.55984C112.852 5.55984 112.632 5.56486 112.408 5.57489C112.242 5.57926 112.077 5.59362 111.912 5.61787V12.3958C111.978 12.4086 112.046 12.4158 112.113 12.4173L112.417 12.4323L112.728 12.4474H112.948C113.441 12.4636 113.931 12.3618 114.374 12.1508C114.739 11.9668 115.05 11.6954 115.278 11.3621C115.508 11.017 115.666 10.6317 115.745 10.2275C115.834 9.79232 115.879 9.34957 115.877 8.90583C115.879 8.50418 115.84 8.10334 115.763 7.70884C115.689 7.32608 115.539 6.96107 115.322 6.63434C115.102 6.30959 114.804 6.04189 114.454 5.85426C114.026 5.64165 113.549 5.54025 113.069 5.55984Z" fill="#666666"/>
</g>
<defs>
<clipPath id="clip0">
<rect width="118" height="18" fill="white"/>
</clipPath>
</defs>
</svg>
